<?xml version="1.0" encoding="UTF-8"?>
<mei xml:id="m-947a59e9-cdff-4994-b56d-3bf77974aa86" xmlns="http://www.music-encoding.org/ns/mei" meiversion="3.0.0">
	<music xml:id="m-3d7c133a-fb9b-4dcc-967e-8fb1f90cf629">
		<body xml:id="m-00053922-782f-45b0-861c-d49c5712abdc">
			<mdiv xml:id="m-d6af1287-c149-46a5-b1e5-e911df594472">
				<score xml:id="m-b6731aec-d686-4f0d-8371-51cb01aa7519">
					<scoreDef xml:id="m-7c8ce1ae-2e97-4953-9906-a01cd9b910a4" meter.count="4" meter.unit="4" key.sig="0">
						<staffGrp xml:id="m-4c630481-609d-4edb-8130-899356c2b483">
							<staffDef xml:id="m-5c567e67-8197-4514-91db-b40da2bcfa56" n="1" lines="5" clef.shape="perc" clef.line="3" />
						</staffGrp>
					</scoreDef>
					<section xml:id="m-02cbb968-f59f-4433-8bc2-2eac8be4b43c">
						<measure xml:id="m-4d724664-5061-49c9-86cc-8078e3812a15" n="1">
							<staff xml:id="m-2ae82d2c-3a6c-409a-ba58-10f3234a7814" n="1">
								<layer xml:id="m-fb0e6677-0368-4ffe-be73-e83fc95f0ed3" n="1">
									<beam xml:id="m-37af5862-bfce-4622-89aa-ed4b1414ee53">
										<note xml:id="m-ddf47cfb-b70a-4594-b222-8456345c1b40" pname="g" oct="4" dur="8" head.shape="+" head.fill="void" />
										<note xml:id="m-8dcb0c93-0f9a-4953-87d2-838a75a882b1" pname="d" oct="4" dur="8" head.shape="oval" head.fill="solid" />
									</beam>
									<note xml:id="m-e8329fab-109f-497d-88a4-afa325b0f7be" pname="g" oct="4" dur="4" head.shape="x" head.fill="void" />
									<chord xml:id="m-a8355ac4-8e93-43b6-bb20-f4f1477b8f49" dur="4">
										<note xml:id="m-12126d11-db85-4d27-9701-ecea119bec67" pname="d" oct="4" head.mod="slash" head.fill="solid" />
										<note xml:id="m-3798a9c4-ded3-4e9e-8a64-e0c5b9bc3aa8" pname="g" oct="4" head.shape="x" head.fill="void" />
									</chord>
									<note xml:id="m-9d50a889-fbd5-41dd-82e1-9458351390bd" pname="g" oct="4" dur="4" head.shape="x" head.fill="void" />
								</layer>
								<layer xml:id="m-c6e19d45-4743-4324-a0de-67d558d70a14" n="2">
									<note xml:id="m-527c25b5-c846-4c15-bf5f-0277eddd937f" pname="f" oct="3" dur="4" head.shape="oval" head.fill="solid" />
									<rest xml:id="m-4041eea2-2c7d-4175-a17f-2a0234222f68" dur="8" />
									<note xml:id="m-f325e9cd-3876-4277-8ad2-96c45ffed805" pname="f" oct="3" dur="8" head.shape="oval" head.fill="solid" />
									<rest xml:id="m-f90b75d0-1595-436c-8b06-a922edd086f2" dur="8" />
									<note xml:id="m-cfda8949-4e5e-44f5-84dc-a3b5a6d7651c" pname="f" oct="3" dur="8" head.shape="oval" head.fill="solid" />
									<note xml:id="m-f1f57c85-06de-4743-a990-400cfcc1a89b" pname="f" oct="3" dur="4" head.shape="oval" head.fill="solid" />
								</layer>
							</staff>
						</measure>
						<measure xml:id="m-4c0ecfcb-fe6d-4e39-971b-b5f0995f9639" n="2">
							<staff xml:id="m-be685bf5-82a6-4c00-89fc-f6a23180ee6e" n="1">
								<layer xml:id="m-4fd5726e-f757-469a-ba59-20866de03f47" n="1">
									<chord xml:id="m-4d980d21-bf95-4580-bc12-6cbe7c765547" dur="4">
										<note xml:id="m-1cbfc5c5-db7a-45de-a5ad-d1f83e87dda3" pname="d" oct="4" head.shape="oval" head.fill="solid" />
										<note xml:id="m-d4259c68-28b4-4050-993e-aa7dda615538" pname="g" oct="4" head.shape="x" head.fill="void" />
									</chord>
									<chord xml:id="m-247bca3c-b269-47de-b823-898d97557e82" dur="4">
										<note xml:id="m-0b4f6c46-e15a-444a-af56-63fc4f1efb6f" pname="d" oct="4" head.mod="slash" head.fill="solid" />
										<note xml:id="m-ac794255-ce84-4dda-84d2-217176d1ed03" pname="g" oct="4" head.shape="x" head.fill="void" />
									</chord>
									<beam xml:id="m-97e74803-5a4b-430f-b1a6-7bf4201c6757">
										<note xml:id="m-23ff6834-1ccc-4d09-a3a2-c1cfe06cd24e" pname="g" oct="4" dur="8" head.shape="x" head.fill="void" />
										<note xml:id="m-68ddfc44-af95-4f89-96d5-b5f48e1e6242" pname="d" oct="4" dur="8" head.mod="slash" head.fill="solid" />
									</beam>
									<note xml:id="m-6f1c29c9-2ad7-4293-9c22-78dbba97a7f3" pname="g" oct="4" dur="4" head.shape="x" head.fill="void" />
								</layer>
								<layer xml:id="m-842f0b2d-9fdb-489c-aff4-cd4c82d458ac" n="2">
									<rest xml:id="m-51ec5fb5-e8fa-4e04-ac6d-a67bf8e2d927" dur="8" />
									<note xml:id="m-916e3db2-c498-489e-a5e3-fff9f17e7716" pname="f" oct="3" dur="8" head.shape="oval" head.fill="solid" />
									<rest xml:id="m-1122a474-7e54-455a-8cf6-39ab32a3dc96" dur="8" />
									<note xml:id="m-c009816c-a5d5-4711-b169-b5c180df4683" pname="f" oct="3" dur="8" head.shape="oval" head.fill="solid" />
									<note xml:id="m-67d436cd-070a-4b2c-aba8-03f4e7767a7d" pname="f" oct="3" dur="4" head.shape="oval" head.fill="solid" />
									<rest xml:id="m-97339439-2de2-44d8-ba41-ce214d93bdc7" dur="8" />
									<note xml:id="m-7f7467d0-a1fe-4df7-9694-914916218262" pname="f" oct="3" dur="8" head.shape="oval" head.fill="solid" />
								</layer>
							</staff>
						</measure>
						<measure xml:id="m-778252c7-fd38-4f8f-8f90-acbec5da85b9" n="3">
							<staff xml:id="m-eea357f5-e473-40cc-a1eb-2a8ab7932524" n="1">
								<layer xml:id="m-b05aefa1-8243-478b-89b8-c1b8a168b723" n="1">
									<chord xml:id="m-7d2a8aae-29cd-4603-9ba0-d2ade50ce98d" dur="4">
										<note xml:id="m-d2f63993-bfc5-42bf-9f58-7ca28e94902b" pname="d" oct="4" head.mod="slash" head.fill="solid" />
										<note xml:id="m-247df7e2-66fa-4f90-8b91-7d9089d8507c" pname="g" oct="4" head.shape="x" head.fill="void" />
									</chord>
									<note xml:id="m-ee0ed8db-4053-458d-b62b-9b4868c37f4a" pname="g" oct="4" dur="4" head.shape="x" head.fill="void" />
									<chord xml:id="m-ba0f8239-788f-425f-8375-cc25251716c8" dur="4">
										<note xml:id="m-f49c5723-6665-44ed-a71a-6aa78c1e7fd9" pname="d" oct="4" head.shape="x" head.fill="solid" />
										<note xml:id="m-251a77ec-39ff-495d-900c-122cd414f869" pname="g" oct="4" head.shape="x" head.fill="void" />
									</chord>
									<chord xml:id="m-ab8f4340-8a10-4761-b4cf-a75b207c24a9" dur="4">
										<note xml:id="m-682e15aa-2654-4b7a-b298-f0a304e2fcba" pname="d" oct="4" head.mod="slash" head.fill="solid" />
										<note xml:id="m-81d82452-ff03-4fe5-9848-b31044258e47" pname="g" oct="4" head.shape="x" head.fill="void" />
									</chord>
								</layer>
								<layer xml:id="m-3f00f9fc-efd8-4b3e-88b8-ae8dccfd9786" n="2">
									<rest xml:id="m-6529ddef-1806-4345-a543-e75426183d5f" dur="8" />
									<note xml:id="m-cf1c3dae-a72a-4b17-8604-705164d31586" pname="f" oct="3" dur="8" head.shape="oval" head.fill="solid" />
									<note xml:id="m-670c6999-9ba3-44a7-bcf4-67faf50333ff" pname="f" oct="3" dur="4" head.shape="oval" head.fill="solid" />
									<rest xml:id="m-2a04880d-5da8-4d7b-a0b2-7199ff23d52a" dur="8" />
									<note xml:id="m-0c68ab31-22f6-4708-92fc-7f89bce3dd1b" pname="f" oct="3" dur="8" head.shape="oval" head.fill="solid" />
									<rest xml:id="m-38920fc2-50c4-4188-8ae9-ee9aabfb4d91" dur="8" />
									<note xml:id="m-d6e39f45-2a0b-4275-9f68-6cd1d79228aa" pname="f" oct="3" dur="8" head.shape="oval" head.fill="solid" />
								</layer>
							</staff>
						</measure>
						<measure xml:id="m-1379057b-3d22-4c15-96b2-a607c31efe53" n="4">
							<staff xml:id="m-0af6301a-3702-40a8-aef5-32eebd9977d0" n="1">
								<layer xml:id="m-f98298ee-4bd3-4e20-972a-5e8467b65e4d" n="1">
									<beam xml:id="m-a878ea3a-251f-4a95-940c-00514160f756">
										<note xml:id="m-b1c38aa3-a82b-423c-82f3-6d519fc9c6a2" pname="g" oct="4" dur="8" head.shape="x" head.fill="void" />
										<note xml:id="m-36ce9e12-d5ca-4ddc-958a-2a3bb620d97e" pname="d" oct="4" dur="8" head.shape="oval" head.fill="solid" />
									</beam>
									<note xml:id="m-c24fbb75-6e6f-455d-923c-ce80b993e3d3" pname="g" oct="4" dur="4" head.shape="x" head.fill="void" />
									<chord xml:id="m-6a01891f-a778-4a15-a8b4-58aa62ea4f34" dur="4">
										<note xml:id="m-197ed370-f557-4fd8-9865-575e0cb25536" pname="d" oct="4" head.shape="oval" head.fill="solid" />
										<note xml:id="m-cec2e83c-0fa4-4073-9905-4b25a875d14c" pname="g" oct="4" head.shape="x" head.fill="void" />
									</chord>
									<note xml:id="m-72ba6dca-d84b-47cf-8bc9-52390b433ac5" pname="g" oct="4" dur="4" head.shape="x" head.fill="void" />
								</layer>
								<layer xml:id="m-7511fcc6-b053-4a1e-92e3-68bdc1f17062" n="2">
									<note xml:id="m-3f520677-336f-4fcc-b98d-0997c4268cd6" pname="f" oct="3" dur="4" head.shape="oval" head.fill="solid" />
									<rest xml:id="m-dcab28c3-b04b-4d9a-abd3-f2d881b8914b" dur="8" />
									<note xml:id="m-a6e7ee67-83b1-4be4-a1c6-a27b3b03f345" pname="f" oct="3" dur="8" head.shape="oval" head.fill="solid" />
									<rest xml:id="m-643628e1-20c7-4e3b-90ab-5adfcef66cf3" dur="8" />
									<note xml:id="m-c5ce2563-44fd-4b02-a29c-b7d0afa1b4cd" pname="f" oct="3" dur="8" head.shape="oval" head.fill="solid" />
									<note xml:id="m-392f2a1d-1880-407f-a638-2d69702e5460" pname="f" oct="3" dur="4" head.shape="oval" head.fill="solid" />
								</layer>
							</staff>
						</measure>
						<measure xml:id="m-4a319de8-e8b3-4d1c-b330-85912cbf61f5" n="5">
							<staff xml:id="m-6ebcaa3c-9d5f-4937-a446-5d1330518611" n="1">
								<layer xml:id="m-f5c2e3f1-2440-4b42-bc0a-21d8dd90e14b" n="1">
									<chord xml:id="m-8e9b869f-b1b7-4d2d-901c-7dc2cc8c38cb" dur="4">
										<note xml:id="m-3437a39a-b6d7-4adf-b6a2-ead6d26fda03" pname="d" oct="4" head.shape="x" head.fill="solid" />
										<note xml:id="m-71d59b7c-221a-4860-8b71-a912e9a9edd8" pname="g" oct="4" head.shape="x" head.fill="void" />
									</chord>
									<beam xml:id="m-a45f9094-1571-4d94-8a19-d2b6f2e0e8ee">
										<note xml:id="m-72d9a22e-7c55-4cb8-bcd1-89d7adffaacb" pname="d" oct="4" dur="8" head.shape="oval" head.fill="solid" />
										<note xml:id="m-2fcdf55f-a83e-46cb-b915-d92983681a87" pname="d" oct="4" grace="unacc" dur="8" stem.mod="1slash" head.shape="oval" head.fill="solid" />
										<note xml:id="m-03bf745c-6072-4bf1-a154-77a91f5b62d9" pname="d" oct="4" dur="8" head.shape="oval" head.fill="solid" />
									</beam>
									<note xml:id="m-8b42e0e4-a937-472a-900a-0f44fe999edd" pname="g" oct="4" dur="4" head.shape="x" head.fill="void" />
									<note xml:id="m-a862505c-6076-462c-a252-9788cad8c96b" pname="g" oct="4" dur="4" head.shape="x" head.fill="void" />
								</layer>
								<layer xml:id="m-f4fdc7eb-c7a2-481a-a70f-9ed38c4c0b52" n="2">
									<rest xml:id="m-71534e5a-3545-4021-a61b-86457d283635" dur="8" />
									<note xml:id="m-cec03796-5c7d-4472-ab1e-25ba97d9a667" pname="f" oct="3" dur="8" head.shape="oval" head.fill="solid" />
									<rest xml:id="m-a2a19f9f-1f27-4909-94a2-b1317100b320" dur="4" />
									<beam xml:id="m-914cb13b-9d6d-4292-9e05-7654ff9973db">
										<note xml:id="m-e5cbc218-6bf9-4eb5-be73-4bd2324aeb06" pname="f" oct="3" dur="8" head.shape="oval" head.fill="solid" />
										<note xml:id="m-99f425fd-aafd-48e8-8f2a-c810592edf02" pname="f" oct="3" dur="8" head.shape="oval" head.fill="solid" />
									</beam>
									<rest xml:id="m-fc09275e-c4b5-4a30-9a2f-35733ec259b3" dur="8" />
									<note xml:id="m-d8b0a0d9-eba0-4acd-ab29-b9c675465bd5" pname="f" oct="3" dur="8" head.shape="oval" head.fill="solid" />
								</layer>
							</staff>
						</measure>
						<measure xml:id="m-1009b96e-b34b-4dd7-8a61-57c851d7fbd8" n="6">
							<staff xml:id="m-be3e46b1-a996-4ce4-bdda-0a04e2b4d512" n="1">
								<layer xml:id="m-675c4c60-8c91-4a50-9abf-cca55db2e5e4" n="1">
									<chord xml:id="m-ac441f9b-773e-4419-bbeb-6f91925e8333" dur="4">
										<note xml:id="m-75b21f9b-da39-4e7d-87aa-5eb79ba88660" pname="d" oct="4" head.mod="slash" head.fill="solid" />
										<note xml:id="m-571d1335-cb67-448b-8097-822868a79800" pname="g" oct="4" head.shape="x" head.fill="void" />
									</chord>
									<beam xml:id="m-73acff4a-bd66-4a98-a728-f25cece8e383">
										<note xml:id="m-ddce737c-c7c8-4c11-99fb-5b9ac2cd9769" pname="g" oct="4" dur="8" head.shape="x" head.fill="void" />
										<note xml:id="m-3551604d-aad3-49b0-a8ab-5a00d93ed0fa" pname="d" oct="4" dur="8" head.shape="oval" head.fill="solid" />
									</beam>
									<note xml:id="m-2b7d4726-4d8f-4234-95d8-7a58f5ae9ba6" pname="g" oct="4" dur="4" head.shape="x" head.fill="void" />
									<beam xml:id="m-0f1a96b4-b9bf-4f8a-9fd5-85a1b5e4d762">
										<chord xml:id="m-1f6266b9-b443-4611-98b7-38253abf380f" dur="8">
											<note xml:id="m-640479b0-2e39-41d9-b4d4-082e80a1684a" pname="d" oct="4" head.shape="oval" head.fill="solid" />
											<note xml:id="m-0095a84e-9caa-4c8b-b300-e3d9baeecafb" pname="g" oct="4" head.shape="x" head.fill="void" />
										</chord>
										<note xml:id="m-8cce9212-52cc-477f-815c-680794032f80" pname="d" oct="4" dur="8" head.shape="oval" head.fill="solid" />
									</beam>
								</layer>
								<layer xml:id="m-2cb95349-ae1f-44ed-8838-a012d3a978af" n="2">
									<rest xml:id="m-d3a25cf1-e48e-426c-935d-48ed1a7beaf8" dur="8" />
									<note xml:id="m-bf623b7c-d1aa-4545-805f-ffdd98dd7485" pname="f" oct="3" dur="8" head.shape="oval" head.fill="solid" />
									<note xml:id="m-edbbbe40-9d45-4b49-99f3-67b50cfebaff" pname="f" oct="3" dur="4" head.shape="oval" head.fill="solid" />
									<rest xml:id="m-70f56269-9369-40e4-8900-4b0810ef1587" dur="8" />
									<note xml:id="m-23cf52df-e75e-470a-9cd6-b7d6fa0fe756" pname="f" oct="3" dur="8" head.shape="oval" head.fill="solid" />
									<rest xml:id="m-95c6001b-0728-4aef-a87c-16393cec0877" dur="8" />
									<note xml:id="m-796fe4fa-d43f-47eb-be98-da7eac232eb2" pname="f" oct="3" dur="8" head.shape="oval" head.fill="solid" />
								</layer>
							</staff>
						</measure>
						<measure xml:id="m-94aa2de3-9d20-4846-ba25-9adab35e5062" n="7">
							<staff xml:id="m-f80c671c-9462-49ce-8158-62b352f1116b" n="1">
								<layer xml:id="m-f75ecfe1-69f8-47ec-b49d-211c26736f84" n="1">
									<beam xml:id="m-5d3dd83a-b9d8-474d-87fc-f50775d31cc9">
										<note xml:id="m-5f9d9b38-ab0c-44e8-b6b4-3e3db17c2092" pname="g" oct="4" dur="8" head.shape="x" head.fill="void" />
										<note xml:id="m-665b7f67-7487-4cb7-8960-60c731c0bcfd" pname="d" oct="4" dur="8" head.shape="oval" head.fill="solid" />
									</beam>
									<chord xml:id="m-bf437567-e351-4e8c-b0ce-ea72c964c509" dur="4">
										<note xml:id="m-b3c41e29-9211-4412-acc7-27c9b3db5e3e" pname="d" oct="4" head.shape="oval" head.fill="solid" />
										<note xml:id="m-c81eff34-56b6-4e90-8abc-b4998b44039d" pname="g" oct="4" head.shape="x" head.fill="void" />
									</chord>
									<chord xml:id="m-dcc85484-1950-4d65-803e-4512091b3797" dur="4">
										<note xml:id="m-63af8254-f72d-485d-80bb-826c112b6aea" pname="d" oct="4" head.shape="oval" head.fill="solid" />
										<note xml:id="m-45ef6071-261c-4dd2-8b97-1a19d011c432" pname="g" oct="4" head.shape="x" head.fill="void" />
									</chord>
									<beam xml:id="m-48178727-6b7b-42ee-8033-2c26865613b3">
										<note xml:id="m-f7f2c067-3b3b-4ccb-b54b-b706a1a9bf47" pname="g" oct="4" dur="8" head.shape="x" head.fill="void" />
										<note xml:id="m-d849cc3a-bc7e-4a81-a259-3dd76b9891da" pname="d" oct="4" dur="8" head.shape="oval" head.fill="solid" />
									</beam>
								</layer>
								<layer xml:id="m-dad8cf6b-1644-4df9-abc0-b01f3afb267d" n="2">
									<note xml:id="m-1d91e6b7-2991-4f2a-a553-92e2bdca7b84" pname="f" oct="3" dur="4" head.shape="oval" head.fill="solid" />
									<rest xml:id="m-175c702e-f1e4-4459-956d-7b72fe1147cc" dur="8" />
									<note xml:id="m-7f3fc65d-3a8e-4772-bb3d-fb9b4055810a" pname="f" oct="3" dur="8" head.shape="oval" head.fill="solid" />
									<rest xml:id="m-1f8829fb-28ec-4479-91cd-68bff02ebbbb" dur="8" />
									<note xml:id="m-099328c9-2550-402b-8a1a-4d36c8933788" pname="f" oct="3" dur="8" head.shape="oval" head.fill="solid" />
									<note xml:id="m-038e9066-1180-40ee-94af-6c6a1fcacb86" pname="f" oct="3" dur="4" head.shape="oval" head.fill="solid" />
								</layer>
							</staff>
						</measure>
						<measure xml:id="m-7fa7669f-b8af-401e-a7b7-a13c2765a29c" n="8">
							<staff xml:id="m-8704164e-cc42-4a3e-934f-1b2d5d4302e3" n="1">
								<layer xml:id="m-aa5c301f-b959-4e29-bc25-4f9fbfb17ff3" n="1">
									<note xml:id="m-f913a9e4-3da4-41c0-b9b5-1145ec113b69" pname="g" oct="4" dur="4" head.shape="x" head.fill="void" />
									<chord xml:id="m-9711e220-8dc3-432e-8c0e-136bc7143e24" dur="4">
										<note xml:id="m-8ba1a95f-eb84-48d5-9690-05c3480812c9" pname="d" oct="4" head.mod="slash" head.fill="solid" />
										<note xml:id="m-888fdc13-dda5-463e-bfae-bb9f3b8cd33e" pname="g" oct="4" head.shape="x" head.fill="void" />
									</chord>
									<note xml:id="m-a9298010-a9e5-427b-a416-47693a397bef" pname="g" oct="4" dur="4" head.shape="x" head.fill="void" />
									<chord xml:id="m-dfd862c1-7104-4adc-b605-151cfb9be2dc" dur="4">
										<note xml:id="m-828de74b-ba70-476b-8bab-1cfff95206df" pname="d" oct="4" head.shape="oval" head.fill="solid" />
										<note xml:id="m-76887ee0-90d2-4d0c-84bb-ff2a9f9c5f7d" pname="g" oct="4" head.shape="x" head.fill="void" />
									</chord>
								</layer>
								<layer xml:id="m-8a576847-9b2b-4e40-b9d1-eb2ad032b496" n="2">
									<rest xml:id="m-4efec7fb-0bda-4019-aa54-a0dc5ec9bdc6" dur="4" />
									<beam xml:id="m-9cd08729-34e0-4048-97d7-b681911f85ba">
										<note xml:id="m-4c822b2d-d517-49df-a548-6ce985a078fe" pname="f" oct="3" dur="8" head.shape="oval" head.fill="solid" />
										<note xml:id="m-24291f43-4250-4fa9-ac32-a2adb57b8c09" pname="f" oct="3" dur="8" head.shape="oval" head.fill="solid" />
									</beam>
									<note xml:id="m-af1a6360-46d6-4e08-a399-9a66ec53f85a" pname="f" oct="3" dur="4" head.shape="oval" head.fill="solid" />
									<rest xml:id="m-6486f560-4e33-4930-a29e-873f0c8c2a6b" dur="8" />
									<note xml:id="m-dbbfad33-82f2-43e2-9b63-c6a56a0d1321" pname="f" oct="3" dur="8" head.shape="oval" head.fill="solid" />
								</layer>
							</staff>
						</measure>
						<measure xml:id="m-f340563c-3355-4808-a8d9-c38fccbae495" n="9">
							<staff xml:id="m-10d103b2-e2a4-42b7-a573-35ce428b685e" n="1">
								<layer xml:id="m-ca2620fe-a534-4636-a3a7-12ca0d5d456e" n="1">
									<chord xml:id="m-f01c88c3-7eae-4929-b147-599fd3a0f327" dur="4">
										<note xml:id="m-af23736a-2715-4cfd-a200-641bc8de3cb3" pname="d" oct="4" head.mod="slash" head.fill="solid" />
										<note xml:id="m-01b4a8b3-6a2a-4807-a838-2d2ecddc8ad2" pname="g" oct="4" head.shape="x" head.fill="void" />
									</chord>
									<note xml:id="m-ba14ef91-e1f7-4d05-98e4-40bc4e631aeb" pname="g" oct="4" dur="4" head.shape="x" head.fill="void" />
									<chord xml:id="m-4d701c82-73ce-4fed-bd3c-2e4ffc83feef" dur="4">
										<note xml:id="m-1cf6df58-d1b9-47c5-8eb0-c1bd141f2022" pname="d" oct="4" head.shape="x" head.fill="solid" />
										<note xml:id="m-94d5056f-36dc-4664-9b61-181b33438e43" pname="g" oct="4" head.shape="x" head.fill="void" />
									</chord>
									<chord xml:id="m-a04f5421-ab97-4b2b-a28c-83fb993c0ba9" dur="4">
										<note xml:id="m-59ee079f-a5ef-4810-9474-dab55bccb91e" pname="d" oct="4" head.mod="slash" head.fill="solid" />
										<note xml:id="m-c7c08b68-5fd4-4c03-a81f-8f78ebebe70e" pname="g" oct="4" head.shape="x" head.fill="void" />
									</chord>
								</layer>
								<layer xml:id="m-caa97654-113b-4830-b016-e175c2364813" n="2">
									<rest xml:id="m-8674e0fb-d0dd-4981-844e-ec8d0107c2df" dur="8" />
									<note xml:id="m-ad75ddc4-8ea9-46e3-867c-36f6f61b493e" pname="f" oct="3" dur="8" head.shape="oval" head.fill="solid" />
									<note xml:id="m-1be41c86-2a7b-4545-a7b5-34f97bd8ba76" pname="f" oct="3" dur="4" head.shape="oval" head.fill="solid" />
									<rest xml:id="m-5fa0dacf-647e-4ccc-96ac-448630f6fa85" dur="8" />
									<note xml:id="m-8133e8be-8876-4119-81eb-7d9f9a6ab764" pname="f" oct="3" dur="8" head.shape="oval" head.fill="solid" />
									<rest xml:id="m-0009b395-9217-47a8-84b3-9c3706f89165" dur="8" />
									<note xml:id="m-f749fcd4-56fc-4a0f-8dbb-ca95a79c0508" pname="f" oct="3" dur="8" head.shape="oval" head.fill="solid" />
								</layer>
							</staff>
						</measure>
						<measure xml:id="m-2882c671-0c48-4f14-b7fe-95a9bcd68a79" n="10">
							<staff xml:id="m-a9c93b0a-d57a-4a80-ac42-1dce8f4a7fb6" n="1">
								<layer xml:id="m-1df43f72-7dfc-4650-8510-003647afc186" n="1">
									<note xml:id="m-a095dc34-2eb1-4ba2-af5e-a0888fa02bb7" pname="g" oct="4" dur="4" head.shape="x" head.fill="void" />
									<chord xml:id="m-c45bcb56-8ca8-408e-9806-6bdfbf426b58" dur="4">
										<note xml:id="m-54a23a95-9c31-477d-9170-bdd287ae8a1f" pname="d" oct="4" head.shape="oval" head.fill="solid" />
										<note xml:id="m-5a207321-5d14-4bec-88d8-03a97feda6a5" pname="g" oct="4" head.shape="x" head.fill="void" />
									</chord>
									<chord xml:id="m-ec62933a-1c07-4851-9e49-6541c0624b43" dur="4">
										<note xml:id="m-1cbcbb70-4a51-4ac2-97d9-fef5b04b8fc4" pname="d" oct="4" head.mod="slash" head.fill="solid" />
										<note xml:id="m-b407b0fd-f0d6-412f-bbab-ea807656a5d1" pname="g" oct="4" head.shape="x" head.fill="void" />
									</chord>
									<beam xml:id="m-67034de9-829d-4520-aff9-1af957f64ff6">
										<note xml:id="m-e636e00e-1499-4e20-9e60-716f0707a21e" pname="g" oct="4" dur="8" head.shape="x" head.fill="void" />
										<note xml:id="m-11a86ea1-6ca7-4a84-9543-259d66f1c48f" pname="d" oct="4" dur="8" head.shape="x" head.fill="solid" />
									</beam>
								</layer>
								<layer xml:id="m-bee194b7-be03-44ed-a802-4bd0a31700a3" n="2">
									<note xml:id="m-f968a951-7ebe-4420-842d-a4bf63d3b8c0" pname="f" oct="3" dur="4" head.shape="oval" head.fill="solid" />
									<rest xml:id="m-55adfbc5-aab3-4bad-bcc5-18bcf3c67a08" dur="8" />
									<note xml:id="m-6685c7c3-14ae-42d1-87d6-6c5fd8ba4077" pname="f" oct="3" dur="8" head.shape="oval" head.fill="solid" />
									<rest xml:id="m-7964c894-6183-4e77-ac58-5423d4701c2c" dur="8" />
									<note xml:id="m-d48f8ff9-0856-4305-927a-f8becb2f49b3" pname="f" oct="3" dur="8" head.shape="oval" head.fill="solid" />
									<note xml:id="m-15ae15e3-9b01-4862-ad4b-f9ab5c202158" pname="f" oct="3" dur="4" head.shape="oval" head.fill="solid" />
								</layer>
							</staff>
						</measure>
						<measure xml:id="m-a999d5ae-573f-41d7-9837-ef3bfc2f2c92" n="11">
							<staff xml:id="m-50f9db0b-a999-49b8-a04f-1cb3356b013e" n="1">
								<layer xml:id="m-7a04373b-5b16-410c-b262-4804d29486ff" n="1">
									<note xml:id="m-54115ad2-5102-47c4-b140-fc2b346e3948" pname="g" oct="4" dur="4" head.shape="x" head.fill="void" />
									<chord xml:id="m-1d7dd410-cf55-41b0-9edd-de17404be77f" dur="4">
										<note xml:id="m-10fe2381-d6db-479f-bfe7-533b93396bd2" pname="d" oct="4" head.shape="oval" head.fill="solid" />
									</chord>
									<beam xml:id="m-562df257-d0ea-49d9-8dba-72a20dc29e82">
										<note xml:id="m-558722f2-9326-4c11-8765-952fb31b7a70" pname="g" oct="4" dur="8" head.shape="x" head.fill="void" />
										<note xml:id="m-242ff810-096e-4f09-8c81-9dd458ba068e" pname="a" oct="4" dur="8" head.shape="x" head.fill="void" />
									</beam>
									<beam xml:id="m-44dc0a3f-74d9-4dd5-9001-e09dee5a490b">
										<note xml:id="m-8169163e-0f3e-4350-9bc0-6e9356ae43f0" pname="d" oct="4" dur="8" head.shape="oval" head.fill="solid" />
										<note xml:id="m-5551fc32-8782-47e1-bd89-70367811c683" pname="a" oct="4" dur="8" head.shape="x" head.fill="void" />
									</beam>
								</layer>
								<layer xml:id="m-09732788-98e2-419c-a076-3c2e8da71d3b" n="2">
									<rest xml:id="m-d9aae97a-562c-4e4c-b087-93f56de2a0d8" dur="8" />
									<note xml:id="m-b88aa179-4769-48ec-bddd-934356eabbd1" pname="f" oct="3" dur="8" head.shape="oval" head.fill="solid" />
									<rest xml:id="m-5dbc8bbf-0870-4a70-a0df-9949b5a2c641" dur="8" />
									<note xml:id="m-41e3e071-9a47-4ca3-b856-a5c17478dfb1" pname="f" oct="3" dur="8" head.shape="oval" head.fill="solid" />
									<note xml:id="m-6873e49e-baec-433b-8538-74c8fc41f04d" pname="f" oct="3" dur="2" head.shape="oval" head.fill="solid" />
								</layer>
							</staff>
						</measure>
						<measure xml:id="m-8951e163-59ab-46e4-9b04-6dccf250eb45" n="12">
							<staff xml:id="m-6e8f4c3b-5af1-4377-9321-c9b8afa3d5f7" n="1">
								<layer xml:id="m-4b507a16-50d3-4f46-9636-705c971a2bc3" n="1">
									<chord xml:id="m-bc5b0c45-5ee2-45ca-8858-7a0a6526dc5e" dur="4">
										<note xml:id="m-b295eecb-a8aa-42b8-becb-a59fe3edda7b" pname="d" oct="4" head.mod="slash" head.fill="solid" />
										<note xml:id="m-a35e1e33-9812-45c9-a537-8e1ecfa5d2eb" pname="a" oct="4" head.shape="x" head.fill="void" />
									</chord>
									<note xml:id="m-203a9641-6831-4a1d-aa71-ac237de926e2" pname="a" oct="4" dur="4" head.shape="x" head.fill="void" />
									<chord xml:id="m-48215724-fd04-4802-a654-c96bc096da7a" dur="4">
										<note xml:id="m-4a7603e6-9a8e-4824-bc76-0c27ca675dab" pname="d" oct="4" head.shape="oval" head.fill="solid" />
										<note xml:id="m-3972f6ed-bae1-48b1-9296-6ccdb400987b" pname="a" oct="4" head.shape="x" head.fill="void" />
									</chord>
									<chord xml:id="m-92fc1909-6310-42dd-88eb-a6cb4c5b223a" dur="4">
										<note xml:id="m-50032d5b-a247-400a-8852-6851da7d272d" pname="d" oct="4" head.mod="slash" head.fill="solid" />
										<note xml:id="m-625770dc-47bc-4d86-809d-38745e9c507d" pname="a" oct="4" head.shape="x" head.fill="void" />
									</chord>
								</layer>
								<layer xml:id="m-3e43b9d0-1fa4-463f-8001-2bf6e2a1a9fb" n="2">
									<beam xml:id="m-47348095-ca5f-4d43-9844-d1e2b773c51f">
										<note xml:id="m-226881b4-b650-4f39-9d3d-afdcf25c759a" pname="f" oct="3" dur="8" head.shape="oval" head.fill="solid" />
										<note xml:id="m-494c3077-3cdb-4299-aafc-b3a71500138a" pname="f" oct="3" dur="8" head.shape="oval" head.fill="solid" />
									</beam>
									<note xml:id="m-c4f8e600-2eba-41e8-8582-23f59a650fc8" pname="f" oct="3" dur="4" head.shape="oval" head.fill="solid" />
									<rest xml:id="m-12b2f6d1-76a9-40ac-8722-1140813c74af" dur="8" />
									<note xml:id="m-5b292885-928a-4fd8-b8d4-3b53b4f14681" pname="f" oct="3" dur="8" head.shape="oval" head.fill="solid" />
									<rest xml:id="m-9b9d4836-fbdb-4772-895d-afb923c92ac3" dur="8" />
									<note xml:id="m-36539a52-9f4b-48c6-a478-fb812b684bb7" pname="f" oct="3" dur="8" head.shape="oval" head.fill="solid" />
								</layer>
							</staff>
						</measure>
						<measure xml:id="m-8682c1fd-614b-44fe-a502-46d3674c1842" n="13">
							<staff xml:id="m-710253ae-16a5-4d5e-ae0e-c75e75e0f32d" n="1">
								<layer xml:id="m-d64423b5-e0fc-4422-ac8c-e647cca1a3fb" n="1">
									<note xml:id="m-53b7f830-237a-4c4a-9cc3-6e5d3d283b19" pname="a" oct="4" dur="4" head.shape="x" head.fill="void" />
									<chord xml:id="m-9d5456f0-e9f2-4337-90e4-0d5677b2cf31" dur="4">
										<note xml:id="m-8884aafd-bea1-4cdb-aa8e-b08a851ca8fa" pname="d" oct="4" head.mod="slash" head.fill="solid" />
										<note xml:id="m-ae33c0ef-26b9-46b7-a858-8299a824d0a2" pname="a" oct="4" head.shape="x" head.fill="void" />
									</chord>
									<chord xml:id="m-542dbedc-0daf-4654-b03b-bffafdca30a2" dur="4">
										<note xml:id="m-193bd4bd-970d-4002-b6fb-7408b70737d3" pname="d" oct="4" head.mod="slash" head.fill="solid" />
										<note xml:id="m-3af590f1-c322-49ee-acfd-38165e689436" pname="a" oct="4" head.shape="x" head.fill="void" />
									</chord>
									<note xml:id="m-3074d26d-e163-4da5-9277-b0d9d626b1e5" pname="a" oct="4" dur="4" head.shape="x" head.fill="void" />
								</layer>
								<layer xml:id="m-9ab14e61-23f0-4762-996a-d4e9673c5f43" n="2">
									<note xml:id="m-02d648e0-392c-4f50-8a05-62d9286db418" pname="f" oct="3" dur="2" head.shape="oval" head.fill="solid" />
									<beam xml:id="m-cf52ac7a-2ebe-4eaf-a0b8-a7273ea9866a">
										<note xml:id="m-983d4be5-9918-47ab-9cbb-fccf8ff17b9a" pname="f" oct="3" dur="8" head.shape="oval" head.fill="solid" />
										<note xml:id="m-22cddf83-94a4-40c3-87a3-e1b0a05cee90" pname="f" oct="3" dur="8" head.shape="oval" head.fill="solid" />
									</beam>
									<note xml:id="m-cebc0a8c-3f62-40b9-b84e-effd9486a0e2" pname="f" oct="3" dur="4" head.shape="oval" head.fill="solid" />
								</layer>
							</staff>
						</measure>
						<measure xml:id="m-74ab59c4-b994-4113-a8c2-439530d8c869" n="14">
							<staff xml:id="m-9759995e-bb04-47c2-b26e-befb84298bed" n="1">
								<layer xml:id="m-a1cb43f5-7003-4b2e-847d-032d496d4859" n="1">
									<chord xml:id="m-f2f3c96f-a97a-4760-a9ab-3f40891ebaff" dur="4">
										<note xml:id="m-fe74b387-0055-4fcf-9a73-b024bc5c29e4" pname="d" oct="4" head.shape="oval" head.fill="solid" />
										<note xml:id="m-feeb10ad-ee05-4c49-93dd-7fd13fbdd561" pname="a" oct="4" head.shape="x" head.fill="void" />
									</chord>
									<chord xml:id="m-a72aa88d-4a0f-4663-964b-2da278f3766b" dur="4">
										<note xml:id="m-80e1e210-c90e-4d1b-847b-33ad4b9e031d" pname="d" oct="4" head.mod="slash" head.fill="solid" />
										<note xml:id="m-a6461950-f527-497f-88ca-0a99fbb7835b" pname="a" oct="4" head.shape="isotriangle" head.fill="solid" />
									</chord>
									<rest xml:id="m-ad9245a6-b41f-4bd9-b9aa-358a73de9a47" dur="2" />
								</layer>
								<layer xml:id="m-c6970bc3-4fd4-4bcf-b77b-fe37d324092f" n="2">
									<rest xml:id="m-db031f2c-2d8c-4a33-99a0-df6d42797acc" dur="8" />
									<note xml:id="m-bded37f4-b2d3-4e5e-a73e-c43b22fcd98e" pname="f" oct="3" dur="8" head.shape="oval" head.fill="solid" />
									<rest xml:id="m-341ea9c2-4981-416b-982d-54709dc97c5d" dur="4" />
									<note xml:id="m-62d1be93-6e43-47ae-96a0-d0040d541393" pname="f" oct="3" dur="2" head.shape="oval" head.fill="solid" />
								</layer>
							</staff>
						</measure>
					</section>
				</score>
			</mdiv>
		</body>
	</music>
</mei>
